#-------------------------------
017 # Route 1
35,10,10
OldRod
MAGIKARP,10
GOLDEEN,10
GoodRod
MAGIKARP,25
GOLDEEN,25
GOLDEEN,25
SuperRod
MAGIKARP,40
GOLDEEN,40
SEAKING,40
GYARADOS,40
GYARADOS,40
LandDay
PIDGEY,2,4
PURRLOIN,4
STUFFUL,2,4
LILLIPUP,2,4
LILLIPUP,2,4
PURRLOIN,2,4
BELLSPROUT,2,4
BELLSPROUT,2,5
WEEDLE,2,4
CATERPIE,2,4
MEOWTH,3,5
MEOWTH,3,5
LandNight
PIDGEY,2,4
PURRLOIN,4
STUFFUL,2,4
PURRLOIN,2,4
WEEDLE,2,4
CATERPIE,2,4
BELLSPROUT,2,4
BELLSPROUT,2,5
MEOWTH,2,4
MEOWTH,2,4
MEOWTH,3,5
MEOWTH,3,5
#-------------------------------
018 # Iwayama City
25,10,10
OldRod
MAGIKARP,8
GOLDEEN,8
#-------------------------------
024 # Felspfad
25,10,10
Cave
PARAS,3,4
PARAS,3,4
PARAS,3,4
PARAS,3,4
ZUBAT,3,5
ZUBAT,3,4
ZUBAT,3,4
ZUBAT,3,4
MORELULL,3,4
MORELULL,3,4
ZUBAT,3,4
ZUBAT,3,4
#-------------------------------
035 # Felspfad
25,6,10
Cave
ZUBAT,3,4
ZUBAT,3,4
PARAS,3,4
PARAS,3,4
PARAS,4
PARAS,3,4
PARAS,3,4
ZUBAT,3,4
MORELULL,2,4
MORELULL,2,4
PARAS,5
ZUBAT,5
RockSmash
GEODUDE,10,12
DRILBUR,10,12
DRILBUR,10,12
GEODUDE,10,12
GEODUDE,10,12
OldRod
MAGIKARP,10
PSYDUCK,10
GoodRod
MAGIKARP,25
PSYDUCK,25
WOOPER,25
SuperRod
MAGIKARP,40
PSYDUCK,40
WOOPER,40
QUAGSIRE,40
QUAGSIRE,40
#-------------------------------
036 # Dunkler Hain
15,10,10
OldRod
MAGIKARP,10
SLOWPOKE,10
GoodRod
MAGIKARP,25
SLOWPOKE,25
PALPITOAD,25
SuperRod
MAGIKARP,40
SLOWPOKE,40
PALPITOAD,40
FEEBAS,40
FEEBAS,40
LandDay
SLOWPOKE,3,5
SEWADDLE,3,5
PSYDUCK,3,5
PSYDUCK,3,4
SEWADDLE,5
ZORUA,4,5
METAPOD,5
KAKUNA,5
ZORUA,3,4
SLOWPOKE,5
ZORUA,4,5
PARAS,4,5
LandNight
HOOTHOOT,3,5
HOOTHOOT,3,5
PSYDUCK,3,5
ZORUA,3,4
ZORUA,3,4
KAKUNA,5
METAPOD,5
MORELULL,3,4
MORELULL,3,4
SLOWPOKE,4,5
PARAS,4,5
PARAS,4,5
#-------------------------------
038 # Turm des Triumphes
25,6,10
Cave
ESPURR,5,7
ZUBAT,5,7
ESPURR,5,7
ZUBAT,5,7
ZUBAT,5,7
ZUBAT,5,7
RALTS,5,7
RALTS,5,7
ZUBAT,5,7
ZUBAT,5,7
ZUBAT,5,7
ZUBAT,5,8
#-------------------------------
039 # Turm des Triumphes
25,6,10
Cave
ESPURR,5,7
ZUBAT,5,7
ESPURR,5,7
ZUBAT,5,7
ZUBAT,5,7
RALTS,5,7
RALTS,5,7
ZUBAT,5,7
ZUBAT,5,7
ZUBAT,5,7
ZUBAT,5,7
ZUBAT,5,8
#-------------------------------
040 # Turm des Triumphes
25,6,10
Cave
ESPURR,5,7
ZUBAT,5,7
ESPURR,5,7
ZUBAT,5,7
ZUBAT,5,7
RALTS,5,7
RALTS,5,7
ZUBAT,5,7
ZUBAT,5,7
ZUBAT,5,7
ZUBAT,5,7
ZUBAT,5,8
#-------------------------------
045 # Waldschrein
25,10,10
LandDay
SPEAROW,5,7
SEWADDLE,5,7
SPEAROW,5,7
COTTONEE,5,7
FLETCHLING,5,7
FLETCHLING,5,7
COTTONEE,5,7
FLETCHLING,5,7
KAKUNA,7
METAPOD,7
PARAS,5,7
PARAS,5,7
LandNight
SPEAROW,5,7
SEWADDLE,5,7
FLETCHLING,5,7
COTTONEE,5,7
SPEAROW,5,7
METAPOD,7
COTTONEE,5,7
KAKUNA,7
FLETCHLING,5,7
PARAS,5,7
METAPOD,7
KAKUNA,7
#-------------------------------
047 # Endgame
10,40,10
RockSmash
ROGGENROLA,10,12
ROGGENROLA,10,12
GEODUDE,10,12
GEODUDE,10,12
LARVITAR,10,12
OldRod
LOTAD,8
LOTAD,8
LandDay
ODDISH,6,8
ODDISH,6,8
BELLSPROUT,6,8
BELLSPROUT,6,8
DEERLING,6,8
DEERLING,6,8
NIDORANfE,6,8
NIDORANmA,6,8
NIDORANfE,6,8
NIDORANmA,6,8
SKORUPI,6,8
SKORUPI,6,8
LandNight
ODDISH,6,8
ODDISH,6,8
BELLSPROUT,6,8
BELLSPROUT,6,8
DEERLING,6,8
SKORUPI,6,8
NIDORANfE,6,8
NIDORANmA,6,8
NIDORANfE,6,8
NIDORANmA,6,8
BUNNELBY,6,8
BUNNELBY,6,8
#-------------------------------
048 # Bagaara Berg
25,5,10
Cave
LARVITAR,9,10
LARVITAR,9,10
GEODUDE,9,10
GEODUDE,9,10
ZUBAT,9,10
ZUBAT,9,10
ROGGENROLA,9,10
ROGGENROLA,9,10
ROGGENROLA,9,10
ONIX,9,10
BUNNELBY,9,10
BUNNELBY,9,10
#-------------------------------
049 # Bagaara Berg
25,5,10
OldRod
MAGIKARP,8
POLIWAG,8
#-------------------------------
051 # Bagaara Berg
25,5,10
Cave
LARVITAR,9,10
LARVITAR,9,10
GEODUDE,9,10
GEODUDE,9,10
ZUBAT,9,10
ZUBAT,9,10
ROGGENROLA,9,10
ROGGENROLA,9,10
ROGGENROLA,9,10
ONIX,9,10
BUNNELBY,9,10
BUNNELBY,9,10
#-------------------------------
053 # Bagaara Berg
25,2,10
Cave
LARVITAR,9,10
LARVITAR,9,10
GEODUDE,9,10
GEODUDE,9,10
ZUBAT,9,10
ZUBAT,9,10
ROGGENROLA,9,10
ROGGENROLA,9,10
ROGGENROLA,9,10
ONIX,9,10
BUNNELBY,9,10
BUNNELBY,9,10
OldRod
MAGIKARP,8
POLIWAG,8
#-------------------------------
054 # Bagaara Berg
25,5,10
Cave
LARVITAR,9,10
LARVITAR,9,10
GEODUDE,9,10
GEODUDE,9,10
ZUBAT,9,10
ZUBAT,9,10
ROGGENROLA,9,10
ROGGENROLA,9,10
ONIX,9,10
BUNNELBY,9,10
BUNNELBY,9,10
BUNNELBY,9,10
#-------------------------------
055 # Route 3
25,10,10
OldRod
FINNEON,8
CLAMPERL,8
LandDay
DEWPIDER,9,10
SANDYGAST,9,10
SHELLOS,9,10
SHELLOS,9,10
KRABBY,9,10
KRABBY,9,10
DEWPIDER,9,10
DEWPIDER,9,10
SANDSHREW,9,10
DWEBBLE,9,10
DWEBBLE,9,10
DWEBBLE,9,10
LandNight
DEWPIDER,9,10
SANDYGAST,9,10
SHELLOS,9,10
SHELLOS,9,10
KRABBY,9,10
KRABBY,9,10
DEWPIDER,9,10
DEWPIDER,9,10
SANDYGAST,9,10
SANDSHREW,9,10
SANDSHREW,9,10
DWEBBLE,9,10
#-------------------------------
058 # Coconia City
25,10,10
OldRod
CLAMPERL,8
FRILLISH,8
LandDay
DEWPIDER,9,10
SANDYGAST,9,10
SHELLOS,9,10
SHELLOS,9,10
KRABBY,9,10
KRABBY,9,10
DEWPIDER,9,10
DEWPIDER,9,10
DWEBBLE,9,10
DWEBBLE,9,10
DWEBBLE,9,10
DWEBBLE,9,10
LandNight
DEWPIDER,9,10
SANDYGAST,9,10
SHELLOS,9,10
SHELLOS,9,10
KRABBY,9,10
KRABBY,9,10
DEWPIDER,9,10
DEWPIDER,9,10
SANDYGAST,9,10
DWEBBLE,9,10
SANDYGAST,9,10
DWEBBLE,9,10
#-------------------------------
065 # Schattenwald
5,10,10
Land
TANGELA,9,13
INKAY,9,13
INKAY,9,13
SPINARAK,9,13
SPINARAK,9,13
DWEBBLE,9,13
DWEBBLE,9,13
SHINX,9,13
SHINX,9,13
SHINX,9,13
CARNIVINE,9,13
CARNIVINE,9,13
OldRod
SURSKIT,8
MAGIKARP,8
#-------------------------------
073 # Route 4
25,10,10
OldRod
POLIWAG,8
QWILFISH,8
LandDay
SCRAGGY,11,12
TRUBBISH,11,12
TRUBBISH,11,12
MAGBY,11,12
TRUBBISH,11,12
SCRAGGY,11,12
MAGBY,11,12
TRUBBISH,11,12
MAGBY,11,12
VENIPEDE,11,12
MILTANK,11,12
MILTANK,11,12
LandNight
SCRAGGY,11,12
SCRAGGY,11,12
TRUBBISH,11,12
MAGBY,11,12
SCRAGGY,11,12
SCRAGGY,11,12
MAGBY,11,12
TRUBBISH,11,12
VENIPEDE,11,12
VENIPEDE,11,12
MILTANK,11,12
MILTANK,11,12
#-------------------------------
077 # Route 5
25,10,10
RockSmash
GEODUDE,10,12
GEODUDE,10,12
DWEBBLE,10,12
DWEBBLE,10,12
DWEBBLE,10,12
OldRod
MAGIKARP,8
POLIWAG,8
LandDay
RIOLU,11,13
PANCHAM,11,13
RIOLU,11,13
PACHIRISU,11,13
PACHIRISU,11,13
DWEBBLE,11,13
MACHOP,11,13
MACHOP,11,13
TEDDIURSA,11,13
TEDDIURSA,11,13
TEDDIURSA,11,13
TEDDIURSA,11,13
LandNight
RIOLU,11,13
PANCHAM,11,13
RIOLU,11,13
PACHIRISU,11,13
PACHIRISU,11,13
DWEBBLE,11,13
MACHOP,11,13
MACHOP,11,13
PANCHAM,11,13
TEDDIURSA,11,13
TEDDIURSA,11,13
TEDDIURSA,11,13
#-------------------------------
081 # Route 6
25,10,10
OldRod
SURSKIT,8
WOOPER,8
LandDay
AIPOM,15,17
YANMA,15,17
AIPOM,15,17
YANMA,15,17
GLIGAR,15,17
JOLTIK,15,17
PHANTUMP,15,17
JOLTIK,15,17
GLIGAR,15,17
JOLTIK,15,17
JOLTIK,15,17
CARNIVINE,15,18
LandNight
AIPOM,15,17
JOLTIK,15,17
AIPOM,15,17
YANMA,15,17
PHANTUMP,15,17
JOLTIK,15,17
PHANTUMP,15,17
JOLTIK,15,17
GLIGAR,15,17
JOLTIK,15,17
CARNIVINE,15,18
CARNIVINE,15,18
#-------------------------------
087 # Route 3 
25,10,10
RockSmash
BINACLE,10,12
BINACLE,10,12
BINACLE,10,12
CARBINK,10,12
CARBINK,10,12
OldRod
FINNEON,8
REMORAID,8
LandDay
WINGULL,10,12
CLAUNCHER,10,12
SHELLOS,10,12
SHELLOS,10,12
WINGULL,10,12
BINACLE,10,12
WINGULL,10,12
WINGULL,10,12
CLAUNCHER,10,12
DWEBBLE,10,12
DWEBBLE,10,12
DWEBBLE,10,12
LandNight
WINGULL,10,12
CLAUNCHER,10,12
SHELLOS,10,12
SHELLOS,10,12
BINACLE,10,12
BINACLE,10,12
WINGULL,10,12
WINGULL,10,12
CLAUNCHER,10,12
BINACLE,10,12
DWEBBLE,10,12
DWEBBLE,10,12
#-------------------------------
089 # Strandgrotte
25,5,10
Cave
SANDSHREW,10,13
ROGGENROLA,10,13
ROGGENROLA,10,13
CARBINK,10,13
CARBINK,10,13
CARBINK,10,13
CORSOLA,10,13
CORSOLA,10,13
BINACLE,10,13
BINACLE,10,13
BINACLE,10,13
BINACLE,10,13
RockSmash
CARBINK,10,12
DWEBBLE,10,12
DWEBBLE,10,12
BINACLE,10,12
BINACLE,10,12
OldRod
CORSOLA,8
STARYU,8
#-------------------------------
091 # Düsterschlund
25,10,10
OldRod
POLIWAG,8
QWILFISH,8
#-------------------------------
092 # Route 19
25,10,10
OldRod
BASCULIN,8
BARBOACH,8
#-------------------------------
129 # Route 9
20,10,10
Land
PALPITOAD,21,24
GOOMY,21,24
LICKITUNG,21,24
CROAGUNK,21,24
CROAGUNK,21,24
DROWZEE,21,24
PALPITOAD,21,24
DROWZEE,21,24
SHELMET,21,24
SHELMET,21,24
SUNKERN,21,24
SUNKERN,21,24
OldRod
BARBOACH,18
WOOPER,18
GoodRod
BARBOACH,25
WOOPER,30
LOMBRE,30
#-------------------------------
133 # Trainingsfelsen
25,10,10
RockSmash
GEODUDE,12
DWEBBLE,12
DRILBUR,12
DRILBUR,12
DRILBUR,12
OldRod
BASCULIN,10
MAGIKARP,10
LandDay
TIMBURR,12,16
HELIOPTILE,12,16
SNUBBULL,12,16
MEDITITE,12,16
BUDEW,12,16
AUDINO,12,16
SNUBBULL,12,16
BUDEW,12,16
HELIOPTILE,12,16
CHANSEY,12,16
HELIOPTILE,12,16
CHANSEY,12,16
LandNight
AUDINO,12,16
HELIOPTILE,12,16
MURKROW,12,16
MEDITITE,12,16
BUDEW,12,16
MORELULL,12,16
MURKROW,12,16
MEDITITE,12,16
HELIOPTILE,12,16
CHANSEY,12,16
HELIOPTILE,12,16
CHANSEY,12,16
#-------------------------------
137 # Route 8
25,10,10
OldRod
BUIZEL,18
MARILL,18
GoodRod
BUIZEL,25
BUIZEL,25
WISHIWASHI,25
HeadbuttLow
TAILLOW,20
TAILLOW,20
TAILLOW,20
TAILLOW,20
TAILLOW,20
TAILLOW,20
EMOLGA,5
EMOLGA,5
HeadbuttHigh
TAILLOW,5
TAILLOW,5
EMOLGA,5
EMOLGA,5
EMOLGA,5
EMOLGA,5
SWELLOW,5
SWELLOW,5
LandDay
DEERLING,19,22
HERACROSS,19,22
FURRET,19,22
BUIZEL,19,22
GROWLITHE,19,22
GROWLITHE,19,22
GROWLITHE,19,22
CUTIEFLY,19,22
TAUROS,19,22
TAUROS,19,22
YANMA,19,22
YANMA,19,22
LandNight
DEERLING,19,22
BUIZEL,19,22
FURRET,19,22
BUIZEL,19,22
CUTIEFLY,19,22
CUTIEFLY,19,22
GROWLITHE,19,22
CUTIEFLY,19,22
TAUROS,19,22
TAUROS,19,22
YANMA,19,22
YANMA,19,22
#-------------------------------
138 # Zentauri Minen
25,10,10
OldRod
MAGIKARP,8
BARBOACH,8
#-------------------------------
165 # Route 7
15,10,10
OldRod
CARVANHA,8
MAGIKARP,8
HeadbuttLow
AIPOM,20
AIPOM,20
AIPOM,20
AIPOM,20
AIPOM,20
AIPOM,20
VULLABY,20
VULLABY,20
HeadbuttHigh
AIPOM,20
AIPOM,20
VULLABY,20
VULLABY,20
VULLABY,20
VULLABY,20
MANDIBUZZ,25
MANDIBUZZ,25
LandDay
MURKROW,17,19
CROAGUNK,17,19
CROAGUNK,17,19
PHANTUMP,17,19
MURKROW,17,19
PHANTUMP,17,19
PHANTUMP,17,19
HOUNDOUR,17,19
HOUNDOUR,17,19
PINSIR,17,19
HOUNDOUR,17,19
PINSIR,17,19
LandNight
MURKROW,17,19
DUSKULL,17,19
DUSKULL,17,19
PHANTUMP,17,19
HOUNDOUR,17,19
PHANTUMP,17,19
PHANTUMP,17,19
HOUNDOUR,17,19
HOUNDOUR,17,19
PINSIR,17,19
HOUNDOUR,17,19
PINSIR,17,19
#-------------------------------
175 # Zentauri Minen
25,5,10
Cave
GEODUDE,13,15
ARON,13,15
DRILBUR,13,15
ROGGENROLA,13,15
DIGLETT,13,15
DIGLETT,13,15
DIGLETT,13,15
SABLEYE,13,15
DRILBUR,13,15
ROGGENROLA,13,15
ROGGENROLA,13,15
ROGGENROLA,13,15
#-------------------------------
191 # Safari Strand
35,10,10
OldRod
FINNEON,8
CHINCHOU,8
LandDay
DUCKLETT,20,23
CORPHISH,20,23
SANDYGAST,20,23
STARYU,20,23
PYUKUMUKU,20,23
WINGULL,20,23
SEEL,20,23
WIMPOD,20,23
SEEL,20,23
SEEL,20,23
DWEBBLE,20,23
DWEBBLE,20,23
LandNight
SANDYGAST,20,23
CORPHISH,20,23
WIMPOD,20,23
STARYU,20,23
PYUKUMUKU,20,23
WINGULL,20,23
SEEL,20,23
WIMPOD,20,23
SEEL,20,23
SEEL,20,23
DWEBBLE,20,23
DWEBBLE,20,23
#-------------------------------
192 # Safari Wald
35,10,10
LandDay
NUZLEAF,20,23
CHERUBI,20,23
SWADLOON,20,23
EXEGGCUTE,20,23
GRUBBIN,20,23
STUNKY,20,23
NINCADA,20,23
KARRABLAST,20,23
NINCADA,20,23
NINCADA,20,23
CARNIVINE,20,23
CARNIVINE,20,23
LandNight
NUZLEAF,20,23
PHANTUMP,20,23
SWADLOON,20,23
EXEGGCUTE,20,23
GRUBBIN,20,23
STUNKY,20,23
NINCADA,20,23
KARRABLAST,20,23
NINCADA,20,23
NINCADA,20,23
CARNIVINE,20,23
CARNIVINE,20,23
#-------------------------------
213 # Route 2
10,40,10
RockSmash
ROGGENROLA,10,12
ROGGENROLA,10,12
GEODUDE,10,12
GEODUDE,10,12
LARVITAR,10,12
OldRod
LOTAD,8
LOTAD,8
LandDay
ODDISH,6,8
ODDISH,6,8
BELLSPROUT,6,8
BELLSPROUT,6,8
DEERLING,6,8
DEERLING,6,8
NIDORANfE,6,8
NIDORANmA,6,8
NIDORANfE,6,8
NIDORANmA,6,8
SKORUPI,6,8
SKORUPI,6,8
LandNight
ODDISH,6,8
ODDISH,6,8
BELLSPROUT,6,8
BELLSPROUT,6,8
DEERLING,6,8
SKORUPI,6,8
NIDORANfE,6,8
NIDORANmA,6,8
NIDORANfE,6,8
NIDORANmA,6,8
BUNNELBY,6,8
BUNNELBY,6,8
#-------------------------------
215 # Route 27 
25,10,10
OldRod
FINNEON,15
SHELLDER,15
GoodRod
FINNEON,25
SHELLDER,25
SKRELP,25
#-------------------------------
223 # Flutkrater
25,3,10
Cave
MARILL,15
WIMPOD,25
MARILL,15,25
WOBBUFFET,25
NOIBAT,25
WOOBAT,25
WOOBAT,25
WOOBAT,25
QUAGSIRE,25
QUAGSIRE,25
AZUMARILL,25
AZUMARILL,25
OldRod
MARILL,18
STUNFISK,18
#-------------------------------
224 # Flutkrater
25,10,3
Cave
MARILL,15
WIMPOD,25
MARILL,15,25
WOBBUFFET,25
NOIBAT,25
WOOBAT,25
WOOBAT,25
WOOBAT,25
QUAGSIRE,25
QUAGSIRE,25
AZUMARILL,25
AZUMARILL,25
OldRod
MARILL,18
STUNFISK,18
#-------------------------------
225 # Flutkrater
25,10,3
Cave
MARILL,15
WIMPOD,25
MARILL,15,25
WOBBUFFET,25
NOIBAT,25
WOOBAT,25
WOOBAT,25
WOOBAT,25
QUAGSIRE,25
QUAGSIRE,25
AZUMARILL,25
AZUMARILL,25
OldRod
MARILL,18
STUNFISK,18
